Valid GTINs: 851
5010255829399
5028252008273
5010255060358
5010255060655
5010255060709
5010255060754
5010255063083
5028252014533
5010255700766
5010255701008
5010255781017
4002432533039
4002432532995
4002432533008
4002432557011
4002432557028
4002432533015
4002432533107
027242853140
027242853157
4002432430918
4002432430925
4002432430932
4002432430956
4002432430970
4002432431069
5010255775207
5010255775283
5010255810779
5010255810809
5010255820662
5010255820617
5010255820693
5010255820624
4002432431090
4002432431106
4002432431151
5010255706416
5010255706430
5010255706454
4002432430604
4002432441419
80509328409
80509328454
80509328508
5010255833549
5010255706928
5010255706942
5010255707017
5010255808851
5010255808868
5010255707109
5010255707185
5010255707307
5010255707321
5010255707338
5010255707345
5010255707352
5010255707376
5010255707451
5010255707475
5010255810489
5010255806680
5010255707604
5010255707611
5010255816566
5010255707703
5010255707741
5010255707772
5010255801302
5010255708731
5018203801220
5018203799534
5018203799541
5018203799558
5028252006675
5028252006682
5028252006699
5028252140140
5028252504034
5028252504041
5028252316354
3243480010085
3501178960426
5028252049887
5028252049894
5028252103237
5028252108263
5028252112093
5028252112109
5028252112130
5028252112147
5028252112178
5028252112185
5028252115704
5028252118125
5028252118286
5028252118293
5028252118422
5028252118989
5028252119665
5028252119719
5028252119740
5028252119771
5028252120531
5028252120708
5028252120715
5028252120739
5028252123129
5028252125895
5028252125901
5028252125918
5028252125932
5028252125949
5028252142663
5028252150736
5028252170895
5028252170918
5028252172363
5028252172387
5028252172707
5028252176866
5028252194099
5028252194105
5028252194914
5028252194938
5028252194952
5028252197021
5028252197038
5028252197045
5028252197052
5028252198578
5028252250177
5028252250245
5028252250269
5028252250276
5028252250283
5028252250290
5028252250306
5028252064040
5028252286022
5028252286039
5028252286046
5028252286053
5028252286060
5028252286077
5028252286084
5028252290982
5028252501873
5028252501880
5028252501910
5028252502061
5028252504799
5028252504805
5028252504812
5028252504829
5028252504836
5028252504843
5028252504980
5028252504997
5028252505024
5028252505147
5028252505154
5028252505161
5028252505192
3501179570549
3501179782478
3501179783642
3501179783659
3501179783666
3501179805627
5028252117852
5028252133357
5028252152082
5028252152105
3026980101022
5014453200417
5019410207478
5028252047531
5028252047562
5028252047579
5028252047586
5028252047630
5028252047647
5028252047692
5028252048545
5028252048569
5028252217989
5028252106238
5028252116312
5028252116350
5028252116404
5028252116411
5028252116428
5028252118736
5028252496995
5028252497039
5028252496957
5028252130134
5028252130219
5028252133128
5028252134088
5028252218108
5028252134620
5028252134644
5028252134651
5028252134705
5028252134767
5028252153171
5028252153188
5028252153249
5028252497213
5028252497114
5028252175449
5028252176972
5028252198486
5028252497305
5028252497251
5028252247276
5028252247306
5028252248020
5028252255080
5028253255973
5028252271325
5028252271653
5028252271660
5028252047975
5028252048132
5028252048095
5028252061926
5028252061889
5028252061841
5028252061742
5028252061704
5028252062206
5028252062268
5028252062831
5028252068567
5028252277655
5028252277679
5028252277686
5028252504652
5028252294706
5028252294690
5028252329002
5028252329026
5028252329064
5028252329118
5028252316118
5028252315999
5028252316088
5028252316026
5028252309622
5028252504638
5028252309585
5028252339391
5028252387903
5028252387989
5028252388887
5028252504683
5028252387613
5028252504744
5028252387651
3249440216276
3249440216283
3249440216290
3249440216306
3249440216337
3249440216375
5028252009317
5028252009379
027242852648
027242852730
5019410261159
5019410261456
5019410264358
5902812239249
5902812239256
5902812239263
5902812239270
5902812239294
5902812239300
5902812239317
5028252137614
5028252137713
5028252137720
5028252137942
5028252155038
5028252177672
5028252177726
5028252246859
5019410301152
5028252008921
5019410301459
5016812301575
5016812301582
5016812301742
5016812301759
5016812301841
5016812301858
5016812341489
3243480009942
3243480013352
5016812335013
3134375014250
5016812305146
5028253216059
33816024021
33816024045
33816100381
3249443269002
5016812388644
85896333746
33816056350
33816056367
33816056374
5016812311635
5016812334214
5016812339448
5016812384080
5016812380938
5016812390029
74711372015
33816036482
33816036499
33816028654
33816067394
33816048065
5016812390036
5016812390043
5016812390050
5028252220156
5028252220163
5028252220194
5028252220200
5010255785350
33816097056
33816097094
33816097100
33816097117
33816097247
33816097254
33816048119
33816048126
33816048133
33816048218
33816048225
33816048294
5028252217934
5028252217941
5028252217958
5028252217965
5028252220057
5028252220026
4002432512898
4002432512911
4002432532902
4002432532865
4002432532872
4002432532896
4002432557073
4002432557080
4002432532889
4002432557097
5019410432139
5019410432146
5019410432153
5019410432191
023942435082
5019410433129
5019410433136
5019410433143
5019410433167
5019410433174
5019410433181
023942433255
023942433279
023942433439
023942433514
023942434269
5031713032342
023942435129
023942435211
023942435228
023942435334
023942435419
023942435488
023942435501
023942437499
5028252002851
5028252236409
5028252236461
5028252236478
5028252236652
5028252330312
5028252330329
5028252330336
5028252330343
5028252330350
5028252330367
5028252330374
5028252502702
5028252502726
5018009100947
5018009100923
5028252218016
5028252218030
5028252218047
5701216471879
4002432363216
5028252217804
4002432316779
4002432310340
4002432395958
4002432395965
4002432395972
4002432103058
4002432395989
3243480014540
4901780990702
4901780728619
027242852518
027242852501
4002432316793
4002432336050
4002432310784
4002432364022
4002432393534
4002432115419
4002432115426
4002432115433
4002432115440
4002432115457
4002432115464
4002432352999
4002432370917
4002432113620
4002432113637
4002432113644
4002432113651
4002432113705
4002432113712
4002432113729
4002432113736
4002432113743
4002432113750
4002432113767
4002432113774
4001536548321
4002432324507
4002432324538
4002432324552
4002432396009
4002432396016
4002432396023
4002432396030
4002432324620
4002432363971
4002432363988
4002432364008
4002432363995
4002432364695
4002432364701
4002432364718
4002432364725
5011858561457
5011858561464
85896561484
85896561552
4002432311446
4002432311477
4901780970216
4002432105601
4002432105618
4002432105625
4002432105632
4002432103669
4002432398126
4002432398119
4002432398140
4002432103799
4002432103805
4002432398133
4002432396801
4002432105649
4960999843995
4960999844008
4002432110087
636638006277
636638006284
636638006192
636638006239
4049793030777
4049793030845
4046719505593
4046719506392
21200466083
4001895877193
3134375398374
3134375398398
5013459687352
5013459687376
4002432104772
4002432104802
4002432104819
4002432104826
4002432104833
4002432104840
4002432104857
4002432104871
4002432104888
4002432104895
4002432104901
4002432104918
4002432104932
4002432104956
4002432104963
4002432104970
4002432104987
4002432104994
4002432105007
5012273101280
5012273101341
5012273101440
5012273101464
5012273101488
5012273101501
5012273101525
5012273101549
5012273110169
5028252006385
5028252006392
5028252021142
5012273712950
5012273717047
5012273717078
5028252002684
5028252002691
5028252002707
5028252002813
5028252002837
4002432112975
4002432112982
4002432112999
4002432113002
4002432113064
5012273750358
5012273751577
5012273758408
5012273758415
5012273759313
5012273759337
5012273759344
5012273759511
5012273759641
5012273759825
5012273759832
5012273759849
5012273759856
5012273780089
5012273780201
5012273780416
5012273780454
5028252025706
5012273781413
5012273781437
5012273782892
5012273786524
5012273786548
5012273786555
5012273786562
4049793006383
4049793006390
4049793006406
4049793006413
4049793006420
4049793006437
4049793006444
4049793006482
4049793006505
4049793006512
4049793006529
4049793006567
4049793006581
4049793006611
3249440903343
3249440903350
3249440903367
3249440903374
5099206010109
5099206018112
5099206025172
5099206027169
5099206027275
5099206028838
5099206028845
5099206040861
5099206020849
5099206021433
5099206020603
885909512089
5053118306903
97855133250
4052015023709
5082014023935
5099206072060
5099206070455
80509416359
80509416366
5099206003996
5099206004023
5099206028074
051128775868
051128788349
051128788356
0051128742013
051128744802
051128786147
051128787144
051128787281
051128788530
051128830017
051128831076
5055410499444
5099206029378
5054484193685
5054533686939
4072015015849
4022015012232
5054565525022
5099206053304
5099206057333
5099206057340
5000394054448
5036446808202
5051794021189
5051794019940
5024442894305
5051794008999
27242699441
5028252262538
8019152803317
8019152803355
8019152603467
8019152803331
8019152803324
8019152803218
8019152803249
8019152803232
8019152050018
3141725000221
3141725002041
3141725000443
8019152803171
5055410403656
5051964008286
5054814422959
4971850090458
8806088867328
8806088317748
5054629999868
6064490975112
5425657079097
5054484241539
4971850186045
5054484687870
6064491015398
5425656056068
5054814438189
4056324018814
0606449130034
9789800347287
6064491037932
5052184079933
0606449107418
0606449113143
0606449116496
5054533246195
7426043658665
5054629666357
4056324045070
4054319099015
5052916501930
6064491030452
6064490798698
0606449128154
0606449128277
5425657121185
5425657077055
6064491051792
0606449116540
5028252176859
5028252193641
5028252064064
4971850099673
4971850099710
13465160639
13465165122
13465165184
13465165320
13465165382
13465370014
13465370021
13465370038
13465370045
13465386848
13465451003
13465451010
13465451027
13465451034
13465451201
13465451607
13465509575
13465585036
4971850185697
5054533557635
5425657085067
6064490991570
5425657085005
6064490989836
5028252290401
5028252352291
085896602736
085896604129
5028252220491
5028252302814
5028252305082
5028252316217
85896724230
5028252149365
8806087017793
8806087021172
8806087021189
8806087019537
8806087019087
8806087019520
5054533601291
5054533537866
7458836321760
5054533881389
7458836329162
5054533537842
7458836323436
5054533603707
5054533603486
7458836351910
7458836352832
5099206022638
5099206033627
27242795211
27242634466
27242861725
27242665446
27242618770
4971850090472
4971850090519
4971850090403
4971850090465
34138201008
34138598160
34138598177
34138598153
5019577190118
5019577190125
5019577190170
5019577190187
5019577190194
5019577190248
5019577190255
5019577190262
5019577190316
5019577190385
5019577190392
5019577190408
5019577190453
5019577190477
5019577190521
5411313450102
5411313450638
5411313450140
5411313450157
5411313450164
5411313450171
5411313450188
5411313450195
5411313450218
5411313409100
5411313409131
5411313409186
5411313436137
5411313452137
5411313452182
5411313537131
5411313537186
5411313990103
5411313990127
5411313990134
5411313990141
5411313113526
5411313113533
5411313113540
5411313113557
5411313113564
3501170784440
3501170838815
3501170838860
3501170838914
3501170838969
3501170879498
3501170883983
3501170904961
3501170904985
3501170915394
3501170915493
3501170928998
3501170929001
3501170929018
3501170929094
3501170929124
3501170946329
3501170946428
3501170968963
4971850132011
4971850188766
8806088706665
8806088632049
8806088631523
8806088624877
8806088606705
8806088686134
8806088714509
8801643066918
8806088709635
8806088708737
8801643225131
8801643096519
8801643097363
8801643225131
8801643225155
8801643225148
8806088272344
8806088272351
8806088272368
8806088893082
8806088893167
8806088835228
8806088835464
8806088939636
4971850033387
0606449129441
0606449129311


Forbidden GTINs: 2884
4902505122576
4902505122590
4902505122583
4902505122606
4902505122620
4902505122613
4902505138140
5016291882626
5016291881278
5000204895841
5016291885382
4902505424311
4902505424335
5060332300051
4902505163135
4902505163142
4902505163159
4902505166556
4902505163197
4902505163203
4902505163210
4902505166563
5011566400307
5011566400208
5060375973465
4006381517478
4902505377488
4902505377501
4902505252723
4902505252730
4902505252747
4042448913852
4042448913869
5018505001397
5026824840061
5060149064252
5060149064498
5018505170901
5018505170895
5018505005340
5018505005357
5018505005364
5010356719865
5010356719896
5010356719902
5010356932578
5010356966467
5010356911726
5010356932554
5010356966450
5010356911719
5010356932547
5010356910804
5010356932585
5010356912419
5010356932561
5010356912501
5010356901093
5010356901741
5010356927673
5010356912525
5010356908573
5010356660693
5010356901734
5010356912495
5010356901857
5010356931625
5010356927949
5012476004531
5012476004548
5012476004555
5012476004562
5012476004579
5012476004586
5020215707582
4902505040177
4902505040184
4902505040191
4902505040207
4902505078828
4902505078842
3020120367279
3020120366395
5010356902151
3020120666181
3020120666280
3462151540205
3462159003429
5011417568330
5701193013543
3462155801104
3462157200103
5701193015103
5701193027274
5701193013864
5707055038068
5707055042416
5707055041969
5707055040597
5017303031179
5017303039007
4902505040214
4902505040221
4902505040238
4902505040245
5017303031209
5017303041987
5017303026892
5413149200111
3270241014181
3270241014198
3462151477105
5017303038949
5017303027622
5017303026922
5017303026953
5017303027011
5018505001717
5018505001731
7313462640312
4015468102704
5017303030424
5017303033333
5701193023276
5016196115676
5016196115690
9004362359418
9004362301257
9004362301264
9004362424383
9004362424413
9004362424420
5060215937084
5018505000239
5018505000253
4015468106443
9004362304562
5017303017326
5060215930573
4007817105238
4007817105146
9004362303183
5028635003079
5028635004465
5060102436836
5060102436805
5029053010458
5701193014564
5011352135505
5701193015240
5701193021753
3144031163147
3144030164817
5055171304056
5060102436744
5721147973082
5060215936216
5016196115713
5060215930603
5060215933369
5017303021668
5060215937244
8717496335029
4015468112628
5060215937251
8717496335753
8717496335647
5018505002790
4901681087587
4901681087594
4901681087600
5018505005067
5017303031667
4015468117630
5060215935608
50043859645065
50043859645096
4040134035666
4040134035734
5060215934847
5060215936339
5016196152787
5016196152794
5016196152800
5016196152824
5016196152886
3037921192412
5060215933567
3086121741067
3086121741098
3086121901218
3086121901256
6438409008329
6438409008336
6438409008343
6438409002860
6438409002853
6438409000262
6438409000286
6438409000293
190084201933
4015468120715
190084214278
5017303030608
5017303030806
5017303031001
8713797028394
4015468123532
4902778545492
4902778545539
4902778545584
4902778545621
4902778150313
4902778125946
4548351031602
4548351031626
4548351031640
5017303024249
5025874100071
5017303031155
5017303025611
5017303025734
5060215935554
5055559707189
8717496333414
8717496332660
8717496332684
8717496333735
8717496335852
5018505025065
5016469132904
4901681013739
4901681013746
5017303044315
5017303044599
5017303044681
5017303048603
5060215934786
5060215933888
5018505126755
5060215935271
5018505030625
5060215935288
5060215935004
5060215935295
5060215935486
5060215935523
5018505016353
5060215933628
5060215934816
5060215933604
5055559708414
5018505035453
5018505035491
5017303059845
5017303059906
5017303062357
5017303062463
5054533304055
5706991017120
5010305049951
5010305049968
5010305049982
5010305050476
5010305050483
5010305050773
5010305050803
5010305050780
5010305050797
5010305050452
5010305050469
5010305051053
4005546140537
4005546140551
4005546140568
4046719273539
4006381225168
4005546140605
4005546100890
4005546103365
4005546100920
4005546103310
9004362494034
9004362423973
5060215935943
5060215935011
5060215933598
5017303139042
5017303139073
5011817121128
5011817121142
5011817121210
5011817121241
5011817121272
5011817121326
5011817121470
5011817121074
5011817121098
4902778151181
4902778917350
5706991018974
5017303172353
5017303172445
5706991018998
5012788023152
5012788023220
5012788039771
5012788046670
5012788046731
5012788046762
5012788046823
5012788046700
4902778129487
5012788003680
5012788065336
5012788068030
5012788012088
5012788018110
5012788018141
5012788032932
5017303195963
5017303196021
5017303196731
4006381137089
4006381137126
5017303213636
5017303217252
5017303217412
5017303217641
5017303217672
5017303218440
5017303218471
5017303218525
8713797066303
8713797066310
8713797066327
5060215933666
4901681080427
4901681093113
4901681093137
4901681093212
4901681093229
4902778524398
4902778524404
4902778524411
4902778512548
4902778913772
4902778512555
4006381225229
4006381483735
5060215935790
5060215935813
0172290056620
5016291885429
5016291018803
4006381301244
4006381301183
4006381301367
4006381491945
5011566408600
4548351063825
4548351063849
4548351063863
4548351063887
4548351063900
4548351063924
4548351063948
4548351063962
4548351063986
4548351064167
4548351064181
4548351064204
3501179100739
3501179100746
3501179270944
3501170856352
3501179316659
3501170908709
5011566429452
3501179531700
3501179531823
3501179531861
3501179531878
3501179531892
3501179531908
3501179531915
3501179531922
3501179532059
3501179532066
3501179532073
3501179532097
3501179532417
3501179534466
3501179534473
3501179534503
3501179534817
3501179845111
3501179856162
3501179863061
3501179863078
3501179864389
5011566029522
5060215933307
5060215933321
3501179934570
3501179961132
4004764950645
4004764878413
5019380170017
5033588042709
5033588041504
5033588041511
5033588042730
4056203029368
5033588043195
5033588044468
5033588044475
4056203077796
4006381415699
4006381415521
4006381415552
3026980250409
3026980251611
3026980253806
3026980254476
5712505758557
0017229146464
0017229156463
0017229147782
0017229147799
0017229150003
5054629866337
5019380170024
4006381483995
0017229146594
0017229146617
0017229148673
0017229151482
0017229148697
0017229151437
0017229151505
0644391032440
5033588045472
5033588047964
5033588046479
5033588046486
5033588046493
5033588046691
5033588046714
5033588046721
5033588046738
5033588047971
0017229149687
0017229149694
5033588046417
7313465104507
0017229151925
0017229151949
5057103099788
5033588048510
5033588048527
5033588050056
4250414103712
4250414103736
4250414103774
4250414103835
4250414103859
3462159009629
5016196155351
5016196255365
5016196255204
5016196228802
5016196228819
5016196228833
5016196230331
5016196230348
5016196230409
5016196230454
5016196230461
5016196230478
5016196230485
5016196254849
5016196254856
5016196254863
5016196254870
5016196254887
5016196254894
77511211065
4250414103934
4250414103972
4250414103996
4250414104016
4250414104030
4250414104054
4250414106676
4250414133221
4250414133238
77511211409
4054317288336
5032608009630
5019380170093
5025874103294
5025874103324
5025874103300
5025874103317
5025874107858
5016196000699
5016196100658
5016196100702
5016196100719
5016196100726
5016196100757
5016196100733
4009212041524
4009212035523
4009212038555
3249440216344
4902778928264
5016196100764
5016196100665
5016196100771
5016196100818
5016196100788
5016196100795
5016196100825
5016196100801
4902778928271
4005546210100
4005546210124
4005546210155
4005546209197
0610807814306
4054317290544
0610807768371
0349585829034
0610807774693
0610807774709
0610807774716
4902505423888
4902505423871
5060228220593
5019380170130
4005546210490
4005546210544
4005546209142
9002493422612
9002493421639
5060228221378
5016196255419
4250414106539
4250414106553
4902505322761
4902505322778
4902505322785
4902505322792
4902505358098
4902505322815
4902505358081
4902505322808
4005546205199
4005546205274
4005546100845
4902505399411
4902505399428
4902505399435
5011566423504
4902505417566
4902505417573
4902505417580
5060215933581
5011566423603
7313460006004
5054533569300
5060215936353
4005546981956
5011566423702
5016469234103
5016469234202
5018505011198
5016469237203
5060215935578
4005546208930
5060215936230
5060215936247
4005546208893
7313468882006
5060215936414
4005546250236
5060215936421
5060215936346
5016469239900
5016469240005
4013951004948
4013951004962
4013951004986
4013951007086
4013951011748
5011566424006
4013951007093
4013951007994
4013951007482
4005546206356
5019380170215
4021068246038
5018505140034
5060215932553
4007817213599
4007817213896
77511250415
77511250613
77511251214
4005546265094
4005546265117
4005546265148
4005546265308
4005546265247
4005546265285
4005546267371
4005546267388
4005546267425
5060215936254
5060215935707
17229003231
7612176077040
7612176107792
7612176077057
7612176106597
7612176108249
7612176077026
7612176104333
7612176077033
7612176104418
7612176107822
7612176105507
4006381134675
5016469275403
0017229003392
7612176112345
7612176066129
7612176112420
5052178400316
5016469290000
5055425905657
4005546290119
4005546290126
4005546290164
4005546290911
4005546291215
5016469291403
5016469292400
5016469292608
4057305000231
4057305000255
4005546291383
4005546100791
4005546291413
4005546291420
4005546291437
4005546205359
4005546291444
4004764062850
5016196130044
5016196130082
5016873009359
4902505128493
4902505128516
5016873013615
5016873014643
5016873014650
5016873017415
5016873017422
5060215937169
5060215937183
5060215930665
4007817330401
4007817330425
4007817330449
4901681049431
4901681032501
4007817322420
8710968099719
9002493421714
9002493421776
4007817322444
5016196110268
5016196110282
5016196110145
5016196110152
5016196110169
5016196110176
5016196110190
5060215930672
4007817310731
5060215937268
8021684006005
8021684006012
5060215937275
3131910501268
3131910504061
3131910516309
3131910516316
3131910516330
3131910516385
3131910516392
3131910516415
3131910516460
3131910516477
3131910516491
3131910516507
3131910516514
3131910516538
3131910516545
4007817331705
5016196131515
5016196131546
5016196131553
4007817331927
4007817332122
4007817332221
4007817332245
5060215932720
4007817332474
5016469319206
43859514335
5052178169688
5055559724131
5055559724148
5701044322756
5701044322824
5701044323012
5701044323029
5701044323036
5701438323048
5701044323081
5701438324007
5018306324817
5060215938944
8710968008810
4004764062973
8710968173914
8710968448517
5060215933383
4007817018712
4007817334102
8710968203116
5033588004103
5055559724179
5055559724186
5055792399950
5055792399981
5055559724162
5054484081821
4007817140833
4007817140857
5016196253286
5016196253279
5016196253293
5016196253330
5016196253354
5016196253309
5016196253316
5016196253347
5016196253323
5016196142023
5016196142054
5016196021281
5016196221292
5016196221308
5016196221322
5016196221339
5016196221346
5016196221360
5016196221377
5016196221384
5016196253392
5016196221407
5016196221414
5016196221421
5016196221438
4007817328873
4007817328910
4007817314210
4007817314296
4007817186244
77511352508
5055559727873
5060215935592
4007817140628
4007817140697
5055559724087
4004764925087
4004764063093
4004764063109
4004764063116
10077511360548
10077511360555
4004764925117
5025348361335
4004764104604
5055559724193
5055559724209
4004764925148
4004764063291
5054533013568
4007817323366
5014702815218
5014702815232
5014702001116
5014702001130
5051964478928
4006381343626
5033588031468
5054629244326
5033588025429
5033588031475
5053485545202
5033588031499
4548351011741
4004764089949
5060215934441
5055559724230
5033588013389
0172291373252
4054317381471
5016196111494
5016196111500
5016196111517
5016196111524
5016196111470
5016196111487
4010913808064
5054629071670
5033588044116
5033588044123
5054533124042
5052179654503
5033588029519
5033588046936
0662742129809
5033588020660
5033588030720
8410782003892
4902778368596
5033588036944
5033588036951
5016196111869
8410782003908
4004764105625
5060215934281
8410782003922
5055559728153
5033588017974
5033588020509
5054484105343
5052178495206
5055559724056
4026700397222
5033588044345
5038803005002
5038803005019
5017321241208
5017321241215
5017321241222
4004764442768
3045050065217
3045050065279
3045050065323
3045050065361
3045050065392
3045050065422
3045050065682
3045050065712
3045050065743
3045050065774
3045050081224
5010356022903
5904017316411
5019118002009
4013951008397
4013951008410
4013951013698
4013951014237
4013951014268
4013951013728
4013951014350
4013951014381
4015468500012
5019118006762
5019118007639
5019118007882
5019118007912
5019118007943
5019118007974
5019118008001
5019118008032
5019118009701
5019118009770
043859703227
4004764963652
4004764963669
5019118001866
4004764963676
4004764963683
4004764963690
4021068410248
3130630041313
7612176071918
7612176078306
7612176078320
7612176078344
7612176078351
7612176079174
4004764441686
4004764441747
4004764441808
4009212039132
4009212048936
4009212048950
4009212048998
5017321241093
5055559719472
4026700421965
4007817011423
4007885106212
092399432418
9002493036819
4026700435276
5019118707249
885370588538
5017321241123
5017321241130
5017321241147
4004764789696
4004764440436
5060215934595
4013951014466
4013951014480
4013951014527
4013951014541
4004764108053
4004764108091
50043859577892
50043859577908
5018009101708
4021068450305
4021068450336
5016196245090
5016196245106
4026700451870
5060215935301
5055559730316
5016196145321
5016196145338
5016196245366
5016196245373
5016196145413
5016196145437
5016196145444
5016196145451
4004764430864
4004764430901
4004764430918
4004764430949
4026700456110
043859642311
4021068460052
43859642533
5016196146014
0043859647330
5016196146038
043859647439
4021068460533
43859642861
4021068460779
5016196146076
0043859655175
4021068460991
5016196146090
4021068461011
4021068461028
4021068461103
4021068461110
4021068461127
4021068461134
4021068461165
43859628049
043859628117
43859642731
0043859628179
43859628247
5016291988953
43859643745
043859665112
043859683710
043859646890
4901681083008
43859631018
4901681083015
43859628964
43859629039
043859683758
4901681083206
4901681083213
0043859680733
43859631087
051141998862
051141998848
43859629268
043859627356
43859627271
043859627288
5011736771688
5017321241109
4004764498222
4004764498260
4004764440924
4004764440931
4004764440948
4004764440955
4004764498109
5060215935028
5016196147806
5016196147851
5016196147905
5016196112903
5016196112927
5016196112934
79916480008
043859541478
043859541492
043859547326
043859560547
043859560578
043859560585
4004764785629
043859660179
043859660186
043859688272
043859688289
77511481215
043859688999
043859689002
5016196232847
5016196148209
4004764859573
5016196148506
5016196148520
5016196148605
5016196148629
4005546404851
4005546404875
4005546405209
4005546404882
4005546404899
4005546404905
4006381503679
4006381503693
4005546405810
4902505523724
4902505523748
0017229151598
4005546406541
4005546406565
4004764426041
4005546407173
4005546407180
4005546407036
4005546407043
5706991017007
885370353419
4902506040312
5060215933246
4015468500005
4004764426591
4015468500104
4015468500111
4015468500203
4015468500210
4015468500302
4015468500319
4015468500326
4015468500500
4015468500609
5016196130051
5016196229540
5016469217915
5016469300501
5016469301201
5024475502512
5032476251001
5010303120584
5010303120607
4902505154355
4902778508343
5010303133478
5010303133492
5017321767920
4026700456219
4902506040282
5016196113344
5016196113368
4042448318084
4042448318077
5060215933529
4901681512102
5033588015406
5708950514084
5010303148021
5708950515081
5055559724094
3130632518431
3130638518442
3130638518466
5017321241277
5017321241284
5017321241291
5060375972055
5060375972062
5060375972079
43859530014
3148240148711
043859680719
5016196252319
5060375970433
4007817530634
6901443220656
77511530616
77511530623
77511530746
77511530753
77511530876
0077511531514
0077511531521
77511531545
77511532153
77511532184
77511532580
77511532610
77511532627
77511532658
77511532702
77511532733
77511532740
77511532771
077511534676
77511534706
77511534713
77511534737
77511534744
77511534775
77511534782
77511534812
77511534829
77511534850
77511534867
77511534904
77511534935
77511534942
77511535055
77511535116
43859624058
77511537011
77511537042
0077511537158
77511537615
77511537622
5016196252302
3130631542543
4006381198257
4902778545508
4902778545553
4902778545614
3130632549299
4005546502595
3130633555022
3130631555154
4005546502571
4005546502588
5054445015391
4902778150191
4902778150207
3609740146930
3130630561538
43859512119
43859512157
43859522255
0043859522262
43859530021
43859530038
5014702152030
43859651238
43859651245
043859651252
4005546503707
4005546503714
4042448873330
4042448873743
021200596384
4042448073785
0043859568819
4042448175410
4005546521503
0043859624379
4042448126023
4042448126047
0043859624447
4042448126108
4042448126122
4042448124227
0043859667789
0043859679911
0043859609840
0043859609918
4042448073167
0017229145788
0043859641161
0017229145672
0043859641239
0043859679997
0043859680221
043859680313
4005546570358
4005546570365
5000301046405
4042448124326
4005546503394
4005546503448
4042448282262
4005546504605
4005546504629
5016196113849
4005546503790
4042448166524
4042448166401
4042448166449
4042448304186
4005546507385
4005546505909
4042448118851
5602024007116
5011566424709
5060215933253
5060215933260
43859584840
43859584864
43859584871
43859584888
43859624003
5011566424907
5011566427007
5011566425805
5000101346170
5011566425102
5018009126848
5011566427205
5054533012998
92399609889
5016196114082
5011566425508
5011566425607
5011566425706
5011566426703
5055559728122
5011566426307
5055559724070
5060215932843
5060215933703
43859585021
43859585229
4026700444025
4026700440911
5019066171444
9008056629467
4902505326592
4902505326615
79916632018
7638900262643
7638900273267
7638900343526
7638900343533
9008056642978
79916643014
5017321767807
5017321767609
0168141407864
3134375255318
051131996465
4046719100675
3134375042420
051141400679
4046719906437
4001895877186
4001895931918
051141984063
3134375014038
79916655017
3134375042437
051141401270
5054484347972
4046719906444
4046719506583
3134375014175
051135813324
3134375255516
5054533123977
5014976032687
5018009124332
051141998855
5016196114488
5016196114501
3134375398350
5060215935844
051131968097
4006381327329
4006381372213
5011817111105
5011817111129
5011817111143
5011817111167
5011817111341
5011817111204
5011817111037
5011817111365
5011817111044
5011817111051
5011817111068
5011817111075
5032608169006
5032608169013
5032608169044
5032608169051
4005546840000
5032608169075
5032608169082
5032608169105
079916028040
4901681007493
4901681007509
5032608169709
4006381109765
4006381215725
4006381215732
4006381215749
4006381215770
4006381215787
4006381215718
5011566424952
5017321767913
5017321767937
5032608170194
5011566423764
4902778926130
5052883405163
4006381148078
4006381155045
4006381155069
4005546710006
4005546710136
5011566425652
8713797052269
5011566423726
8713797078344
8713797081207
8713797081214
8713797081221
8713797081238
8713797081245
8713797083942
8713797083904
0961613207982
5030610602238
5030610602221
5011566423719
4005546710358
5018505126601
4902778928042
4902778928028
4902778928073
9008056740001
5052415385109
3154147491515
4004764425747
4004764425754
4004764425761
4004764425778
4004764425785
4004764425884
5055559732990
4004764440962
7064870133100
5554442230235
5706991016291
4004764441068
4004764498147
4902778928943
4902778928950
4902778928967
5054533382046
4902778929124
4902778929131
4902778929148
92399763130
92399763734
5033588030867
5706991020359
5706991020366
0092399772415
0092399772453
79916773018
0092399773023
0092399773030
4007817708279
4007817708293
79916777016
5060215935684
79916779010
4004764441495
4902778930304
4902778930311
4902778930328
9008056782537
4054317818298
5055792399875
5055792399882
5033588045359
5033588045366
4902778932483
4902778932490
5055425953948
5055425953955
5033588029663
5033588029236
5554442448814
4004764828524
4004764949724
5021203120017
5021203120024
4005546810034
4005546810041
4005546810089
5010591801080
5000399001812
70330246232
0070330246249
43859541386
43859552665
3086126100845
43859600960
43859470969
43859470976
43859470921
43859487219
92399803614
43859504589
43859504602
43859528059
043859685714
43859526857
0043859716968
0043859716975
4005546810508
4005546810515
4005546810522
43859625086
5033588032069
5033588031628
4005546810126
4005546810164
3086126101385
4005546805573
4005546805597
4005546811062
4005546811215
4005546810898
4005546805306
4005546102108
4005546800042
4005546800080
4005546889306
3086120230135
4005546808611
4005546808642
4005546808628
4005546800264
4005546800097
4005546800103
4005546800127
4005546800134
4005546800196
4005546805528
4005546805665
4005546805535
4005546805702
4005546805696
4005546805719
4005546889313
4005546800226
4046719071371
4046719205936
5033588036333
5032608181978
5032608182005
70330408388
70330510364
3086122000095
3086122300096
4005546803029
4005546803050
4005546802008
4005546802015
4005546802817
4005546802770
4005546802848
4054828150283
5033588031420
5054629244364
5033588031444
5033588031666
5033588031673
5032608182395
5032608182401
4005546806976
3086126644530
3086126600659
3086126600666
4005546806969
4050505036321
5033588036876
5033588032274
5033588035787
5033588035848
5053866445350
4052305665879
0070330129627
70330129641
0070330129665
3086126680149
3086126680156
70330914360
70330914346
5052183098539
4054317872870
5033588038665
5033588035879
5033588039877
5033588039853
5033588039822
5033588039815
5033588039839
4004764099382
3270220093350
3086121721090
3086126721286
3086126721293
5054533365827
5054484365839
4052305380208
0172291354688
5055559723998
4052305414637
5033588035534
5050914864088
3606508097732
5054533018341
70330171619
0070330171626
5054629266946
6953040990371
4052305548783
0017229134805
4005546810768
4005546882031
4005546810775
4005546810799
5014108857102
3086126771908
3086126771915
4005546882109
5054484382454
5014108858017
5054484382461
4005546803425
0172291352080
5054484584100
5054484384687
5033588037408
5033588038672
5033588041641
92399866213
92399866244
5033588038689
5033588038719
5033588037873
3086123120044
5021203936076
5054629857625
5033588038061
5054533458260
3086123134478
3086123134485
5052182525487
0807320373001
5016291885641
5054629150382
5033588040101
0017229143500
0017229143524
3086123155985
5053676929026
5033588038825
3086123170131
4006381346917
4006381484107
5436639816623
5701193880404
3086123175495
3086123175570
4006381357135
3086126100302
70330136700
70330136717
5033588041924
0017229140288
17229140059
4054842419809
17229140066
5033588040323
5033588040330
5018009113589
4005546981925
4005546981932
0803982975058
3086123249929
3086123249950
4054842884652
4005546979632
4005546979656
3086123256644
9008056893769
5033588042792
5054629881958
5033588042839
5033588042853
3086123277175
3086123277359
3086123278233
3086123278240
3086123286054
5033588040613
5060215933314
5060215933338
3086123307490
3086123307544
3086123307575
3086123307582
3249440903114
3249440903183
3086121701092
3086121701061
3086121701030
3086121701023
3086121751097
77511906916
43859527175
43859527182
77511914379
77511914416
77511914508
77511914560
5055559724049
43859529735
43859529742
43859529759
43859529780
77511917172
77511917370
43859497805
43859503377
3086123340107
3086123340626
3086123340633
43859600434
3086123343979
4021068920112
5054533391949
3086123345782
4021068923007
4005546913766
0017229123458
4021068927029
3086123385405
3086123385412
3086123343207
3086123343160
5706991013610
5054629279281
070330512085
3086123415546
77511938047
3086123448919
3086123449480
3086123449558
3086123457423
3086123460119
3086123460126
3086123460133
5054533366176
5706991009774
5706991012682
3086123494374
3086123494381
3086123494664
3086123494671
3086123494893
4004764426010
4004764426003
3086123498303
3086123502901
3086123502918
5018505000642
5055559724124
5018505000680
77511982309
77511983160
0077511994395
4005546909189
4005546909202
4005546909288
4005546909240
4005546909462
5060215936728
6438158764125
6438409600547
6438409600554
6438409602619
6438409605542
6438409605634
6438409605641
6438409605986
6438409606136
6438409606242
6438409606259
6438409606266
6438409606273
4902506998590
4902506310217
5010356230131
5010356281133
0072512069684
4902506048004
5018009132627
5011566430830
5018009129115
5018009129139
5011566417855
5011566418500
5011566417305
5011566417404
5011566417503
5011566417701
5011566417756
5011566430823
5018009129108
5010356801171
4004182056042
4003198104105
4003198104709
4003198104136
4003198104716
4003198104167
4003198104723
4003198104198
4003198104228
4003198104259
4003198104280
4003198104013
4003198104044
4003198104075
3368220089494
3368220089500
3368220089517
5055559701316
5055559701354
4901681049011
4901681049028
5028356500499
882224741644
882224741866
882224742009
5028356508013
5019737001216
5060215936735
5010356221702
5010356261395
5010356265263
3474371277014
3474371277038
3474371277021
3474377712014
0884851006752
0884851006783
0884851006813
0884851006844
884851008817
0884851008848
0884851008879
0884851011497
0884851000088
0884851000101
0072512197592
0072512197622
072512197653
4902506071231
4902506071248
4902506071255
884851000071
4902506071163
4902506071170
4902506071187
884851019783
884851019844
5016196028006
5016196028013
5014702087448
5017321767630
5019737000004
5060215936742
5025874100101
5025874100118
5025874100095
5020786004318
9004362424512
5020786002192
9004362424260
9004362423966
5020786002161
5020786002239
5020786002222
5020786002147
5018918320054
5025874101375
5032608178121
5025874101795
5025874101801
5010356225700
5010356267663
5010356268707
5010356270137
5010356275668
5010356276030
4004182246740
4004182144114
4004182144121
4902506042293
4902506042347
4902506042316
8021684012716
5017321770692
025184163426
808736395847
829160621777
884962925362
887111203861
0889894157720
5010356801164
5025874101672
5025874101689
5025874101665
5025874101702
4004182056097
5011566404022
5060226644766
5019737000363
5028356500079
5019737000127
5019737000134
5019737000066
5019737000073
5019737000080
5019737000097
5019737000103
5019737000110
5060226647897
4004360900990
4004360900907
4004360836824
4004360836640
4004360836589
4004360836527
4004360836763
4004360836404
4004360836343
4004360836282
5017321241451
5014702031113
5014702031670
5014702031120
5014702031144
5014702031687
5014702031250
5014702031267
5014702031717
8021684012723
4003198503014
5060226647842
5060226648009
5060226648016
5060226644346
5060226647989
5060226644773
5060226647996
5060226645565
5060226645589
4003198406308
4003198404014
5019737000349
5019737000349
5019737001124
5019737000370
5019737001131
5060215936766
5010356253116
5010356261036
5010356261708
882224856461
5016196060440
5016196060785
4902506072122
5018009129443
5018009129450
5018009129658
5018009129696
5014702815928
5018009129795
5018009135536
5018009135802
5032548102514
5032548001800
5032548000179
5032548102521
5032548001817
5032548000186
5032548102538
5032548001824
5032548000193
5032548000377
5032548001831
5032548000490
5032548000384
5032548001848
5032548000506
5032548000391
5032548001855
5032548000513
5032548100718
5032548001862
5032548000520
5032548100725
5032548001879
5032548000537
5032548100732
5032548001886
5032548000544
5016196060273
5016196253736
5016196253729
5016196253750
5016196253767
5016196253743
5016196253774
5060215936773
5010356249706
5010356265034
5010356272667
5010356273701
7638900415001
7638900415018
7638900415049
7638900287448
7638900287424
7638900388428
7638900340419
7638900410204
7638900410259
7638900410334
7638900410358
7638900410785
5014702510014
5060215935448
5032476111305
5032476111572
5032476111541
5032476111244
5060215936995
5060215936988
5060215936964
5060215937008
5032138237459
5032608000217
5010027415331
5060226644339
5060226644322
5060226644315
5060226644308
5011566435088
5011566435095
5011566435101
5011566435118
5011566435125
5011566435149
5011566435156
5011566435415
5011566035172
5011566035189
5011566035196
5011566435200
5011566435217
5011566435224
5011566435231
5011566435255
5011566435262
5011566435279
5011566435293
5011566435316
5011566435323
5011566035486
5011566035493
5011566035509
5011566435354
5060215936780
5010356226707
5010356242035
3660141880632
3660141880540
5010356266390
3660141881028
3660141880076
5052183686606
7228689731104
9082015022438
7228689731418
8042015024222
3660141203677
3660141239645
3660141203707
3660141239652
3660141203646
3660141239669
0745883728282
0745883720873
0745883730636
4056572719105
7228689877802
5053866605204
5054533586956
5054533531970
5054629643549
5054629643488
745883654673
4056572723843
4056572733194
7458836613056
4056572723867
4058829189433
0745883732197
5054533531994
4056572722952
4056572718979
4056572719006
7458836628906
4056203275321
4056572727407
3092015032227
5054629711385
4056203526584
4056572726394
5060226645534
5060226645541
5060226645558
5014702520013
5014702520044
5014702087141
5014702087158
5014702087165
5014702087172
5014702087189
5014702087233
5014702087240
5055559700777
5055559700807
5055559700876
5055559700869
5055559700845
5055559700784
5055559700791
5055559703440
5055559751908
5028356508747
5032548103306
5032548001893
5032548000438
5032548103313
5032548001909
5032548000445
5032548103320
5032548001916
5032548000452
5032548003347
5032548003354
5032548003361
5032548003378
5032548003385
5032548003392
5032548003408
5032548003415
5032548003422
5032548102989
5032548002784
5032548102835
5032548102996
5032548002791
5032548102873
5032548103009
5032548002807
5032548102897
5032548103078
5032548002814
5032548103061
5032548001107
5032548002869
5032548103238
5032548001121
5032548002876
5032548103252
5016196221643
5016196140937
5016196140944
5016196140951
5016196140999
5016196140968
5016196141002
5016196140982
5011566436917
5011566436900
5011566436924
5011566436931
5032548100671
5032548100688
5060215936797
5016196060723
5016196140487
5016196140296
5016196220110
4004360887741
4004360887734
4004360887703
4004360850004
4004360887642
4004360887635
4004360833526
4004360863776
4004360849992
4004360867149
4004360867132
4004360887390
4004360850226
4004360843310
4004360843297
4004360843976
4004360836060
4004360843259
4004360843211
4004360843198
4004360843150
4004360835995
5019380650786
5019380650793
5016196115898
5019380430029
5019380460057
5019380460064
5019380450010
5019380450027
5019380450034
5019380450058
5019380450089
5028356508730
5018009140295
5018009140288
5060215936803
5010356254113
5010356254700
5010356263269
5010356270700
5010356283137
885370448207
5028356508723
4004360957628
4004360841361
4004360841309
4004360840951
9314221000369
9314221000499
9314221000970
5060215936810
5019380921015
5010356263399
5010356273664
5010356801195
5014702988943
5014702106149
5014702176296
5014702106156
5014702989742
5014702106132
5014702176302
5014702106163
5014702176319
5014702106170
5014702989759
5014702176326
5014702106194
5014702989766
5014702176333
5014702176340
5014702106224
5014702989773
5014702106231
5014702002052
5014702988950
5014702106248
4004182056035
5014702105388
5014702178450
5014702178467
5014702178474
5014702178481
5014702106255
5014702989780
5014702178412
5014702178948
5014702106330
5014702106347
4004182056103
4004182056110
5032608000224
4902506051516
5032608005106
5032608009814
5032608005113
5032608009838
5060215936827
5010356267397
5010356294706
5010356801218
5032548004443
5032548003965
5032548004450
5032548003972
5032548004467
5032548003989
5032548004474
5032548003996
5032548004481
5032548004009
5032548004498
5032548004016
5032548004504
5032548004023
5706002173760
5706002173777
5706002173784
5706002173791
5032548101753
5032548101760
5032548101791
5032548101807
5032548101814
5032548000865
5032548000872
5032548000889
5010356202190
5010356220705
5010356239707
5010356260398
5010356263030
5010356263702
5014702106415
5014702106422
5014702106361
5014702106378
5014702106385
5014702106392
5014702000737
5014702105357
5014702106354
5014702105296
5014702105340
5014702105364
5014702000010
4004182055199
0885370598766
4004182144251
4004182144268
4004182144275
4004182144282
4004182144312
4004182144329
4004182144336
4004182036549
4004182144350
4004182144367
4004182144398
4004182144404
885370599596
5014702105333
5014702105326
5014702105302
4004182052723
4004182052747
5014702177408
5014702988813
5014702175268
5014702177149
5014702175244
5014702008429
5014702175275
5014702175596
5014702988844
5014702175282
5014702177156
5014702175251
5014702175299
5014702177170
5014702175237
5014702008443
5014702175305
5014702175671
5014702175312
5014702177842
5014702175961
5014702008450
5014702175329
5014702176227
5014702175336
5014702176241
5014702176258
5014702988158
5014702175442
5014702176265
5014702175183
5014702988820
5014702175701
5014702176289
5014702175718
4004182144572
5014702175725
5014702177095
5014702988837
5014702817533
5014702175657
4004182070772
5014702175343
5014702177781
5014702177804
5014702177767
5014702177286
5014702177293
5014702177309
5014702106279
5014702177071
5014702175428
5014702988868
3266550263495
5014702992841
5014702000393
5014702175367
5014702177187
5014702175190
5014702175213
5014702175220
4004182056066
4004182056073
4004182056059
5014702985522
5014702985539
4004182248812
4004182252628
4004182252635
4004182252642
4004182252666
4004182144855
4004182144862
4004182144879
5010356801188
5032476204649
5032476204656
5032476204601
5032476204618
5032476204625
5032476204632
5014702815058
5014702815065
5014702815072
5014702815089
5014702815102
5014702815096
0072512167052
4003198130029
4003198130012
4902506985460
5010356240116
5010356274661
5010356275033
5010356290661
885370252798
5010356801201
5060182800015
5060182800060
5032608005540
0888462564120
0190198056986
0190198043542
0190198066787
0190198068583
0190198070746
0190198155900
0190198156266
0190198156983
5060055462890
0190198450661
0190198451385
0190198453969
0190198456960
0190198457325
0190198458049
0190198458407
0190198543738
0882224015240
5055559714446
5055559714477
5055559719571
5055559719861
5055559722120
5055559720058
5055559714439
5016196051233
5902894016073
4902506050243
4902506050250
4902506050267
4902506050274
4902506985323
4902506985316
4902506985293
4902506985286
4902506040114
4902506040121
4902506040138
4902506071408
4902506070548
5602024006133
4902506046161
4902506046123
4902506067135
4902506045089
5019737001254
5060215933918
5413493178449
5413493166682
5016196141408
5018009140158
4902506040244
4902506040251
4902506040268
5032476122226
5032476241002
5032476261000
5032476271009
5032476281008
5032476284641
5032476291007
5032476294657
5032476301003
5032476321001
5032476334889
5018009140110
5032476354894
5032476364879
5032476222391
5032476420506
5032476680986
5032476689804
5018009140127
5018009140134
5018009140141
5038556001139
5038556007070
5032476111619
5032476352050
5055559718611
5055559718628
5055559718635
4902506052544
5055559718673
5055559718680
5055559718697
5055559718703
5055559718710
5055559718727
5055559720942
5055559718734
5055559718741
5055559718758
5016196127952
5016196127945
5016196127938
5055559701835
5055559701866
5018505140249
5018505140898
5018505020152
5018505400206
5018505000383
5032476522552
5032476562565
5032476572274
5032476582587
5032476532230
5018009140240
5032476111237
5032476111268
5032476111329
5060215931242
5019737001247
5032138220659
5032138222202
5032608006103
5032608005854
5016196147318
5016196147325
5016196147332
5016196147356
5016196147370
5016196147349
5016196147387
5016196147363
4003198782099
4015000086707
4015000092623
4003198782075
4003198782044
5032476221028
5032476251056
5032476271078
5016196140135
5016196140142
5016196140159
5016196140173
5016196140197
5016196140166
5016196140203
5016196140180
5032476321124
5016196140210
5016196140227
5016196140234
5016196140258
5016196140272
5016196140241
5016196140289
5016196040268
5032476601004
5032476611010
0885370997866
5011566428110
5011566428127
5011566428134
5011566428158
5011566428165
5011566428172
4001895838132
3134375014298
4004182495636
4902506040039
4902506040046
4902506040053
4902506040060
5018505010504
5018505010580
5032608009951
5032608009944
5032608006929
5011566428196
5026990050653
5026990036190
5011566417176
5026990081473
5032608013804
5032608002105
5018505302913
5055559702214
5055559706083
5055559706076
5055559702153
5060215932430
5060215932447
5060215932461
5060215932454
5060215932478
5060215932485
5018505010658
5018505010665
5032608000262
5011302198215
5011302198413
5011302198611
5011302198819
5011302199014
5030610602160
5030610602191
8008285245118
8008285245316
8008285265116
8008285265215
8008285265314
8008285265413
8008285310113
8008285310212
8008285310311
8008285310410
8008285503010
8008285503119
8008285503515
5010215011277
5010215011284
3501170767603
3501170767610
3501170768280
3501170810842
3501170818305
3501170810941
3501170810958
3501170810965
3501170811108
3501170811122
3501179801704
3501179801902
3501170941898
3501170949825
3501170949856
3501170977415
3501170977422
3501170977439
3501170977446
3501170977453
4902506975676
4902506975669
4902506975652
4902506975645
3474371257016
3474371257030
3474371257023
3474371257047
4004360835070
4004360835056
4004360835032
4004360835018
4004360834998
4004360834974
4004360834950
4004360834943
5055125806773
5016196061287
5032608007179
5032608007155
5032608007131
5032608007926
5032608007247
5032608007315
5028356500222
5028356500284
5028356500635
5028356500260
5026178000135
5055559738749
5055559738732
5055559738725
5011566408808
5011433137510
5011433137572
5011433114115
5011433114108
4902506070067
4902506070074
4902506070081
5603750109150
5603750109167
5028356500772
5011566419606
5011566419637
5011566419613
5028356501526
5028356502967
5032548102361
5032548000582
5032548000599
5032548000605
5032548000001
5032548000780
5032548003439
5032548003446
5032548003453
5032548000797
5032548003460
5032548003477
5032548003484
5032548000803
5032548003507
5032548003514
5032548003521
5032548000810
5032548003538
5032548003545
5032548003552
5032548000827
5032548003569
5032548003576
5032548003583
5032548000735
5032548000742
5032548102231
5032548002883
5032548003118
5032548102248
5032548002890
5032548003125
5032548102255
5032548002906
5032548003132
5032548000124
5032548000094
5032548000131
5032548000100
5032548000148
5032548000117
5032548001190
5032548001183
5032548001213
5032548001206
5055867050465
5055867055224
5055867050021
5055867050212
5055867052216
5055867050014
5055867050410
5055867050298
5028356500239
5016196118264
5016196118271
5055425905763
5016196118431
6935364083045
6935364083397
6935364098506
5016196118097
5016196118103
5016196019523
5016196119513
5016196119544
3377991140013
3377991140037
3377991140051
3377991140075
3377991145070
3377991941092
3377992241009
3377992246004
3377992340009
3377994131070
3377994131094
3377994141017
3377994141031
3377994141079
3377994141093
3377994145077
3377994146098
3377994172097
3377997145074
3377997441077
3377991545030
3377991545092
3377991575037
3377991944703
3377991946073
3377991946905
3377991946912
3377991946929
3377991947704
3377993400092
3377991949005
3377991949074
3377991949500
3377991949531
3377991949579
3377991949739
3377991949746
3377991949753
3377991950308
3377991950377
3377991950438
3377991950445
3377991950452
3377995102291
3377995110098
3377995112597
7197200124179
5016196253897
5016196253903
5016196253910
5016196253934
5016196253927
5016196253941
5016196253958
5011566429933
5032608005830
5054230488966
6935364020682
6315487614089
6935364020880
8459730200570
6935364020828
5054533135147
5054629949290
9888185235506
5054533474277
6935364021351
4056203090887
6935364020101
6935364021320
8459730220370
8592978086725
5054242155597
5018009140080
5018009140301
5060215933482
5060215933420
5060215933444
5708950513087
5708950517580
5708950517689
5011566429773
5011566436771
885370464856
4006381447317
4006381198738
4006381198745
4711234811152
5019737000332
5032608001689
5019380130578
5018009102026
4015000086806
5028356505173
5032608006011
5032608006028
4003198141018
4003198141025
4902506971531
5011433143641
4902506050212
4902506040411
4902506040428
5019737000387
5019737001179
5019737001186
5019737001193
5019737001209
4902506040558
0884851006561
5016196027962
5016196027979
4054317633297

Not Found GTINs: 730
05016291102106
043859728770
043859730667
50043859709811
5018918300001
5055040700491
5000101135286
5026824840085
5060352750928
5026824840092
5060149065006
5030566102165
5030566102158
5030566108730
5014555007709
5014555006702
5014555046517
5014555011478
5014555045053
5412633001549
4002432533022
900436239276
3361370083862
4002432430901
4002432441396
4084500960091
4084500960275
7615400720521
4015600554712
4002432430994
4002432431021
4002432431045
4002432441402
3249441040207
3249441040306
5025766104712
5025766104729
5025766104736
5025766104750
5025766104767
5025766104811
5025766104828
5025766104842
5025766104866
5025766104873
5025766104880
5025766104903
5025766104910
5025766104934
5025766104941
5025766104958
5025766105085
5025766105108
5025766105115
5025766105856
5025766105719
5025766133323
5025766133330
5025766133347
5025766133538
5025766136515
5025766135778
5039139006824
5039139000488
5025766145319
5039139002376
5039139000471
5039139000464
5039139100355
5039139004998
5039139006794
5039139908111
5039139003069
5039139002444
5039139000501
5039139908128
5039139004127
5039139000921
5039139007272
5039139006817
53243480104499
4002432432035
4002432432059
8427950301261
8427950307461
8427950340161
8427950309052
5028635002744
7322540946802
5055171301529
7322540433456
5060102431770
5055171301567
5055171301550
5055171303592
5028635001617
5055171301499
5055171301536
50043859645959
5060131881225
5060131881249
5060228220708
5060228220234
4046719271368
15021261500018
5060131881515
3462159009247
3462159009216
3462159009186
3462159009711
53243480009688
4002432513345
4002432513390
4002432513383
5060131881782
35016291885512
0028252501989
3501179570532
3501179570556
3501179570563
3501179570594
71701003812
071701003829
71701003850
3501170009321
3026980155407
5012008561310
0017229158412
0017229158436
0017229161825
0017229155893
0017229157989
0017229158139
0017229159914
0017229159921
0017229158559
0017229158610
0017229158672
0017229158726
0017229158740
0017229158498
0017229158221
0017229158368
0017229160163
0017229160187
0017229160231
0017229160248
5060186997124
5060228220555
5060228220562
5060228220579
5060228220586
5016469216802
5060186997513
5060228220289
5060228220302
5060228220319
5060228220326
5060228220333
5060228220371
5060228220388
5060228220395
5060228220401
5060228220418
5060228220425
5060228221323
5060228221330
5060228221361
5060228221491
5060228221507
5019380170192
5016469235087
4013951010356
5060228220760
5060228220784
5018306262515
5060228220999
5055785200454
5055785200041
5055785202984
0765788311
5060186997858
5060186995014
5060186992303
5060186994192
5060186994239
5010591805828.00
5000399005384.00
5010591805811.00
5000399006237.00
5010591801127.00
5000399005292.00
05000399005414
5060186997193
5060186996707
3243480017596
3243480101714
3243480017268
4002432472512
4002432472529
4002432472536
4002432472543
4002432472567
5016469319305
5037062007253
5038803007091
5038803007181
5060131883304
5018306332812
5018306335011
5055792399790
5055792399868
5060131883434
5018306367210
5018306376816
4010913808019
4010913808033
4010913808057
4010913808125
0017229154605
5038803004272
5038803004296
079916018232
5025301439101
5025301439200
5028252515467
5028252515474
5037062007796
4021068460694
15701216465714
0076308498726
0043859627320
5701216471886
5701216480833
15701216480854
15701216480878
043859707737
125016196349200
15701216497029
15701216497043
15902812497295
15701216497524
15701216497623
15021261500025
15021261500049
4002432103041
5018918340014
5060186997520
3130632536213
3130632536220
3130632536237
3130632536251
3130632536268
3130632536299
5060228220975
3130632539238
3130632539252
3130632539269
3130632539276
5701216548106
4001536548376
3130632548919
3130632548933
3130632548957
3130632548964
3130632548971
4002432324583
4002432103126
4002432103133
4002432392919
04005546506302
50021200717326
0043859718191
0043859718252
5060228220814
5060228220821
5060228220838
5060228220845
5060228220852
5060228220876
5060228220906
5060228220913
5060228220920
5060228220937
5060228220944
5060228220951
5060228220883
5004385953037
5010255726926
3130632599218
3130632599256
5038803003077
5038803003053
5060186992242
5060186992235
0076308498733
5039139004639
5016196155467
5016196155474
5016196155498
5016196155504
5016196155542
3134375042383
30051141380866
30051141380859
0076308499419
30051141984057
0076308871673
4046719575237
4001895877216
21200533082
5060131886572
051141998831
03134375398244
3134375398459
3134375398411
03134375398435
51131849693
50079916027314
50051131979340
10043859530424
10043859578259
10043859578266
50043859578295
10043859578303
50043859578318
50043859578325
05016291880462
4002432113118
4002432113125
4002432113132
5012562740572
5012562741371
5012562741722
5012562743375
5012562744310
5060186992297
5060186994611
5060186992259
5060186992266
5060186994260
5060186992280
092399772385
092399772422
0092399772545
092399772965
092399773047
0092399773078
50079916022098
00043859541393
0043859722327
00043859580873
00043859470952
043859727964
043859727971
043859727988
043859727995
043859728008
043859728060
043859728015
03134375005920
4049793006604
3243480104197
007033012634
3243480014885
3243480105149
0616174203163
505367692064
3130632899219
3130632899257
5060131889016
5016469910700
00077511917127
5033588051459
4005546913278
4005546913285
4005546913292
4005546913308
4005546913315
4005546913322
5060228220968
4005546913773
4005546913780
4005546913797
0043859718917
0043859718924
0043859718931
0043859718948
5012562937040
3086123415263
3086123494350
5060131889832
0097855131171
5038803007754
5038803007785
5037062001558
5037062001565
5037062000186
5037062000193
5037062000209
5037062003521
5037062000216
5060182800404
5036446808226
5036446808233
5038803007143
4971850465386
3368220089487
3368220089456
5060182800374
5037062002593
5060444330762
5060444330021
5060444330779
5060444330038
5060444330748
5060444330007
5060444330755
5060444330014
5060444330724
5060444330700
5060444330731
5060444330717
5060444330229
5060444330212
5060444330236
5060444330250
5060444330564
5060444330571
5060444330588
5060444330595
5060444330601
4713120938219
4713120937403
076308931971
076308931988
5038803009024
5038803009017
5038803009123
5038803009000
5038803009048
4710761981185
5025874110382
5025174101368
5055792390537
5037062001305
5037062001336
5037062001275
5037062001299
5037062001329
5037062001268
5037062013087
5037062001312
5037062001343
5037062001282
5019888009017
5019888009031
5000394054436
5038556003805
5038556003843
3141725002256
5060057242339
5019380310017
079252324752
9313784000168
9313784811177
9313784811849
9313784811740
9313784040652
9313784811894
9313784811184
9313784811191
9313784810477
9313784810514
5036446808257
076308931995
076308932008
076308932015
076308932022
076308932039
076308932046
4971850090441
4971850032823
5900422002864
5060057245538
5055361806964
5055361807008
5060057242612
5060057247006
5060057245071
5060057245095
5060057245088
5060057245101
7625633005326
7625633006941
7625633009768
7625633014861
7625633049481
7625633419444
5602024246454
5037062003941
3660141882193
3660141882155
3660141120288
3660141120264
3660141120295
3660141120271
3660141133370
3660141133417
3660141882179
4971850172147
3660141882421
3660141170269
3660141170290
3660141170245
3660141170276
3660141882131
3660141170252
3660141170283
4549526604966
5037062001534
5037062001572
3660141170153
3660141170146
3660141881929
3660141881899
3660141170214
3660141170207
3660141170184
3660141170177
4971850469278
4971850189084
4971850189077
4971850034155
4549526603327
4549526600814
5026178000081
5037062007482
5060444330519
5060444330526
5060444330533
5060444330465
5060444330540
5060444330557
0606449128932
0606449128888
5900422002703
5020271331004
5020271330588
4971850099604
5900422002666
3243480100557
3243480015172
5037062009172
5037062001374
5037062010222
5037062001381
5037062009226
5037062009219
5037062001398
5037062010307
5037062015159
5037062014589
3243480103084
027242896031
5018918320115
5018918320146
5038803006825
5038803006733
5018918320177
5060182800077
5000394017863
5038803008423
5038803008409
03243480102544
3243480102490
3243480102476
5039139004363
5060444330410
5060444330427
5060444330434
5060444330441
5060444330458
5060444330281
5060444330304
5060444330366
5060444330380
5060444330397
5060444330403
5060444330311
5060444330335
5060444330342
5060444330298
5060253463620
5060253463651
5060253463514
5060253463545
5060253463705
5018918320016
5705925014785
5705925014761
5705925014747
5705925014709
5705925014532
5705925014518
5705925014846
5705925014822
5705925014808
5705925014723
5705925014570
5705925014556
5018918340007
5018918340083
5018918340090
5018918360012
5038556001177
5038556003867
5038556007131
5038556007117
5038556007094
7625633398084
7625633401685
7625633403788
7625633418003
7625633419260
7625633454728
5038556004024
7625633278560
7625633280549
7625633285469
7625633290081
7625633309165
7625633439602
7625632795266
7625632805163
7625632808461
7625632810389
7625632831865
7625633422567
5900422003175
079252314234
79252331446
79252331453
79252331484
79252331491
5026178000258
0076308871680
5055556103601
5055556103618
5055556103625
5055556103632
5055556103649
5055556103656
5055556104172
5055556104196
5055556104202
5055556104202
08008285552117
08008285554111
03501170879245
03501170879252
03501170945728
03501170945773
03501170957127
03501170957134
03501170957141
03501170959916
03501170959923
03501170959930
03501170977217
03501170977224
03501170977231
03501170977262
03501170977279
5037062007673
7625633151788
7625633156400
7625633174763
7625633179980
7625633219402
7625633427180
5026178000760
5026178000777
5026178000890
5026178000944
5026178000951
5026178000975
5026178001040
5026178001057
5037062002968
3660141170016
7625633311922
7625633314145
7625633314565
7625633319188
7625633343008
7625633451246
03134375259101
8806088926810
49025060700
5038556018113
5038556018106
5038556018090
7625633367189
7625633374323
7625633377324
7625633381284
7625633389860
7625633453042
079252313138
079252338100
5037062002616
5037062002623
5055361809637
4003198110236
4003198110243
4003198110250
0642968221181
0642968221204
0642968221228
0642968221167
0642968221259
0642968221105
0642968221129
0642968221143
0642968221082
0642968221303
0642968221327
0642968221341
0642968221280


Other GTINs: 0
